An Introduction to NFL Analytics with R - 3 Wrangling NFL Data in the tidyverse
…
With the air_yards data now binned into four different groupings, we can examine quarterbacks at specific distances.

airyards_cpoe_mutate %>%
  filter(ay_distance == "Medium") %>%
  arrange(-avg_cpoe) %>%
  slice(1:10)

# A tibble: 82 x 3
# Groups:   passer [82]
   passer     ay_distance avg_cpoe
   <chr>      <chr>          <dbl>
 1 A.Brown    Medium        -6.09 
 2 A.Cooper   Medium       -43.1  
 3 A.Dalton   Medium         5.01 
 4 A.Rodgers  Medium         2.02 
 5 B.Allen    Medium        44.5  
 6 B.Hoyer    Medium       -44.0  
 7 B.Mayfield Medium       -15.4  
 8 B.Perkins  Medium         0.266
 9 B.Purdy    Medium         9.72 
10 B.Rypien   Medium        18.0  
# ... with 72 more rows
…
