An Introduction to NFL Analytics with R - 4 NFL Analytics with the nflverse Family of Packages
…
In the above example, we are using group_by to combine the desired statistics based on each unique player_id to, again, avoid any issues with player names within the data. After filtering to include just those statistics for the regular season, we first use the summarize function to grab the first player_name associated with the player_id. After, we find two items: (1.) the total number of passing attempts by each QB which is outputted into a new row titled n.attempts and the regular season total of each QB’s air yards, again outputted into a new row titled n.airyards.

It is important to note that the final row created with the summarize function is not a statistic included within load_player_stats(). In order to find a QB’s average air yards per attempt, we must use the first two items we’ve created and do some simple division (the created n.airyards divided by n.attempts).

Finally, to “clear the noise” of those QBs with minimal attempts through the season, we included a filter to include only those passers with at least 400 attempts. After, we arrange the new DF by sorting the QBs in descending order by average air yards per attempt.

The end results look like this:

# A tibble: 25 x 2
   player_name   ay.attempt
   <chr>              <dbl>
 1 R.Wilson            9.89
 2 J.Hurts             8.99
 3 B.Mayfield          8.73
 4 M.Stafford          8.48
 5 J.Allen             8.20
 6 K.Cousins           8.16
 7 J.Burrow            8.12
 8 D.Carr              8.12
 9 T.Brady             8.10
10 T.Bridgewater       8.04
# ... with 15 more rows
…
aggressiveness <- data %>%
  group_by(passer_id) %>%
  filter(down == 3, play_type == "pass", ydstogo >= 5, ydstogo <= 10) %>%
  summarize(player_name = first(passer),
            team = first(posteam),
            total = n(),
            aggressive = sum(air_yards >= ydstogo, na.rm = TRUE),
            percentage = aggressive / total) %>%
  filter(total >= 50) %>%
  arrange(-percentage)

tibble(aggressiveness)

# A tibble: 30 x 6
   passer_id  player_name  team  total aggressive percentage
   <chr>      <chr>        <chr> <int>      <int>      <dbl>
 1 00-0033077 D.Prescott   DAL      84         53      0.631
 2 00-0035228 K.Murray     ARI      60         37      0.617
 3 00-0036389 J.Hurts      PHI      65         40      0.615
 4 00-0033873 P.Mahomes    KC       93         56      0.602
 5 00-0034855 B.Mayfield   CLE      59         35      0.593
 6 00-0036971 T.Lawrence   JAX      78         46      0.590
 7 00-0036355 J.Herbert    LAC      87         51      0.586
 8 00-0035710 D.Jones      NYG      60         35      0.583
 9 00-0036212 T.Tagovailoa MIA      60         35      0.583
10 00-0026498 M.Stafford   LA       95         54      0.568
# ... with 20 more rows
…
aggressiveness.under.10 <- data %>%
  group_by(passer_id) %>%
  filter(down == 3, play_type == "pass", ydstogo <= 10) %>%
  summarize(player_name = first(passer),
            team = first(posteam),
            total = n(),
            aggressive = sum(air_yards >= ydstogo, na.rm = TRUE),
            percentage = aggressive / total) %>%
  filter(total >= 50) %>%
  arrange(desc(percentage))

tibble(aggressiveness.under.10)

# A tibble: 33 x 6
   passer_id  player_name  team  total aggressive percentage
   <chr>      <chr>        <chr> <int>      <int>      <dbl>
 1 00-0035228 K.Murray     ARI      98         67      0.684
 2 00-0036389 J.Hurts      PHI     107         73      0.682
 3 00-0036971 T.Lawrence   JAX     131         88      0.672
 4 00-0033077 D.Prescott   DAL     136         89      0.654
 5 00-0034857 J.Allen      BUF     138         88      0.638
 6 00-0036355 J.Herbert    LAC     148         94      0.635
 7 00-0036212 T.Tagovailoa MIA      93         59      0.634
 8 00-0026498 M.Stafford   LA      172        109      0.634
 9 00-0023459 A.Rodgers    GB      128         80      0.625
10 00-0035710 D.Jones      NYG      85         53      0.624
# ... with 23 more rows
…
aggressiveness.garbage <- data %>%
  group_by(passer_id) %>%
  filter(down == 3, play_type == "pass", ydstogo >= 5, ydstogo <= 10,
         wp > .05, wp < .95, half_seconds_remaining > 120) %>%
  summarize(player_name = first(passer),
            team = first(posteam),
            total = n(),
            aggressive = sum(air_yards >= ydstogo, na.rm = TRUE),
            percentage = aggressive / total) %>%
  filter(total >= 50) %>%
  arrange(desc(percentage))

tibble(aggressiveness.garbage)

# A tibble: 26 x 6
   passer_id  player_name team  total aggressive percentage
   <chr>      <chr>       <chr> <int>      <int>      <dbl>
 1 00-0033077 D.Prescott  DAL      61         40      0.656
 2 00-0036971 T.Lawrence  JAX      51         33      0.647
 3 00-0035228 K.Murray    ARI      51         31      0.608
 4 00-0026498 M.Stafford  LA       79         48      0.608
 5 00-0033873 P.Mahomes   KC       68         41      0.603
 6 00-0035710 D.Jones     NYG      50         30      0.6  
 7 00-0036355 J.Herbert   LAC      67         38      0.567
 8 00-0036972 M.Jones     NE       57         31      0.544
 9 00-0034857 J.Allen     BUF      59         32      0.542
10 00-0029263 R.Wilson    SEA      56         30      0.536
# ... with 16 more rows
…
Once you have the data collected, we can run code that looks quite similar to our code above that explored 2021’s air yards per attempt leaders using load_player_stats(). In this case, however, we are including an additional filter to gather those passing attempts that resulted only in complete passes:

average.airyards <- ay.five.years %>%
  group_by(passer_id) %>%
  filter(season_type == "REG" & complete_pass == 1) %>%
  summarize(player = first(passer_player_name),
            completions = sum(complete_pass),
            air.yards = sum(air_yards),
            average = air.yards / completions) %>%
  filter(completions >= 1000) %>%
  arrange(-average)

tibble(average.airyards)

# A tibble: 22 x 5
   passer_id  player      completions air.yards average
   <chr>      <chr>             <dbl>     <dbl>   <dbl>
 1 00-0031503 J.Winston          1008      8174    8.11
 2 00-0033537 D.Watson           1186      8461    7.13
 3 00-0029263 R.Wilson           1603     10939    6.82
 4 00-0026143 M.Ryan             1954     13051    6.68
 5 00-0034855 B.Mayfield         1185      7858    6.63
 6 00-0034857 J.Allen            1245      8221    6.60
 7 00-0033077 D.Prescott         1613     10449    6.48
 8 00-0026498 M.Stafford         1668     10804    6.48
 9 00-0029701 R.Tannehill        1049      6680    6.37
10 00-0032950 C.Wentz            1505      9491    6.31
# ... with 12 more rows
…
4.4.1 The load_participation() Function

The load_participation() function allows us to create a dataframe of player participation data dating back to 2016 with an option to infuse that information into the existing nflreadr play-by-play data. The resulting dataframe, when not including play-by-play data, includes information pertaining to: the individial game ID, the play ID, the possession team, what formation the offense was in, the layout of the offensive personnel, how many defenders were in the box, the defensive personnel, the number of rushers on pass players, and the unique ID number for each player on the field for that specific play.

Despite the load_participation() function being one of the newest editions to the nflreadr package, it is already being used to create contextual analysis regarding a team’s use of its players out out formations. For example, Joseph Hefner uses the data to create tables (built with the gt packages) that calculates not only each player’s rate of usage out of different personnel packages, but how the team’s EPA per play and pass rate fluncuate with each. In the spirit of R’s open-source nature, he also created a Team Formation ShinyApp that allows anybody to explore the data and output the results in .png format.

To build a dataframe of 2022 participation data, that includes complete play-by-play, you must pass both the season and include_pbp argument with the load_participation() function.

participation <- nflreadr::load_participation(season = 2022, include_pbp = TRUE)

participation

# A tibble: 49,969 x 383
   nflverse_ga~1 play_id posse~2 offen~3 offen~4 defen~5 defen~6 numbe~7 playe~8
   <chr>           <int> <chr>   <chr>   <chr>     <int> <chr>     <int> <chr>  
 1 2022_01_BAL_~       1 ""      <NA>    <NA>         NA <NA>         NA ""     
 2 2022_01_BAL_~      43 "BAL"   <NA>    <NA>         NA <NA>         NA "47969~
 3 2022_01_BAL_~      68 "NYJ"   SINGLE~ 1 RB, ~       7 3 DL, ~      NA "53536~
 4 2022_01_BAL_~      89 "NYJ"   SHOTGUN 1 RB, ~       6 3 DL, ~       4 "53536~
 5 2022_01_BAL_~     115 "NYJ"   SINGLE~ 1 RB, ~       7 3 DL, ~      NA "53536~
 6 2022_01_BAL_~     136 "NYJ"   SHOTGUN 1 RB, ~       7 3 DL, ~       4 "53536~
 7 2022_01_BAL_~     172 "NYJ"   <NA>    <NA>         NA <NA>         NA "53059~
 8 2022_01_BAL_~     202 "BAL"   SINGLE~ 2 RB, ~       7 4 DL, ~       3 "44929~
 9 2022_01_BAL_~     230 "BAL"   SHOTGUN 2 RB, ~       6 4 DL, ~       3 "44929~
10 2022_01_BAL_~     254 "BAL"   EMPTY   1 RB, ~       5 4 DL, ~      NA "44929~
# ... with 49,959 more rows, 374 more variables: offense_players <chr>,
#   defense_players <chr>, n_offense <int>, n_defense <int>, old_game_id <chr>,
#   home_team <chr>, away_team <chr>, season_type <chr>, week <int>,
#   posteam <chr>, posteam_type <chr>, defteam <chr>, side_of_field <chr>,
#   yardline_100 <dbl>, game_date <chr>, quarter_seconds_remaining <dbl>,
#   half_seconds_remaining <dbl>, game_seconds_remaining <dbl>,
#   game_half <chr>, quarter_end <dbl>, drive <dbl>, sp <dbl>, qtr <dbl>, ...
…
If you gather the participation data with play-by-play information, you can use either possession_team or posteam for any filtering.

The same is not true when looking at defensive participation data. A defensive team variable is not provided without included the play-by-play in the data. Once set to TRUE, the defensive team is housed under the typical defteam column.

participation_split <- participation %>%
  filter(!is.na(offense_formation)) %>%
  filter(posteam == "PIT") %>%
  tidyr::separate_rows(offense_players, sep = ";") %>%
  group_by(offense_personnel, offense_players) %>%
  summarize(total = n()) %>%
  ungroup()

participation_split

# A tibble: 157 x 3
   offense_personnel offense_players total
   <chr>             <chr>           <int>
 1 1 RB, 1 TE, 3 WR  00-0032897          3
 2 1 RB, 1 TE, 3 WR  00-0033869        262
 3 1 RB, 1 TE, 3 WR  00-0034142         37
 4 1 RB, 1 TE, 3 WR  00-0034347        781
 5 1 RB, 1 TE, 3 WR  00-0034768        781
 6 1 RB, 1 TE, 3 WR  00-0034785        744
 7 1 RB, 1 TE, 3 WR  00-0034928        235
 8 1 RB, 1 TE, 3 WR  00-0035216        745
 9 1 RB, 1 TE, 3 WR  00-0035217         25
10 1 RB, 1 TE, 3 WR  00-0035222        258
# ... with 147 more rows
…
This is because the information collected with load_rosters() includes not only active players, but those listed on the practice squad and injured reserve. Additionally, you may notice players listed as R/Retired (such as Stephon Tuitt in our dataframe, who retired at the end of the 2022 season). In these situations, this status indicated that the player is listed as ‘reserved-retired’ and that the team continues to hold the player’s rights until the official expiration of their contract. In this case, Tuitt could not come out of retirement prior to his contract ending and play with another team unless first released or traded by Pittsburgh.

Despite the wealth of information in the roster information, only the gsis_id and the full_name is required to complete our participation_split dataframe. Rather than bringing unnecessary information over during the merge, we can select just the two columns we need and then use left_join() to merge each player’s name on the matching ID in the offense_players column and gsis_id from the roster information.

rosters <- nflreadr::load_rosters(2022)

rosters <- rosters %>%
  select(gsis_id, full_name)

participation_split <- participation_split %>%
  left_join(rosters, by = c("offense_players" = "gsis_id"))

participation_split

# A tibble: 157 x 4
   offense_personnel offense_players total full_name        
   <chr>             <chr>           <int> <chr>            
 1 1 RB, 1 TE, 3 WR  00-0032897          3 Derek Watt       
 2 1 RB, 1 TE, 3 WR  00-0033869        262 Mitchell Trubisky
 3 1 RB, 1 TE, 3 WR  00-0034142         37 J.C. Hassenauer  
 4 1 RB, 1 TE, 3 WR  00-0034347        781 James Daniels    
 5 1 RB, 1 TE, 3 WR  00-0034768        781 Chukwuma Okorafor
 6 1 RB, 1 TE, 3 WR  00-0034785        744 Mason Cole       
 7 1 RB, 1 TE, 3 WR  00-0034928        235 Steven Sims      
 8 1 RB, 1 TE, 3 WR  00-0035216        745 Diontae Johnson  
 9 1 RB, 1 TE, 3 WR  00-0035217         25 Benny Snell      
10 1 RB, 1 TE, 3 WR  00-0035222        258 Zach Gentry      
# ... with 147 more rows
…
referees <- nfl_officials %>%
  filter(position == "Referee") %>%
  mutate(crew_id = match(official_id, unique(official_id)))

With a unique crew_id associated with each Referee, we can now use left_join() to bring that information back into our nfl_officials data by merging the game_id and crew_id to the corresponding game_id.

nfl_officials <- nfl_officials %>%
  left_join(referees %>% select(game_id, crew_id), by = "game_id")

The resulting nfl_officials data frame now includes all the original information and now a consistent crew_id for each team that the referee works with.

nfl_officials

# A tibble: 2,065 x 10
   game_id  game_~1 offic~2 posit~3 jerse~4 offic~5 season seaso~6  week crew_id
   <chr>    <chr>   <chr>   <chr>     <int> <chr>    <int> <chr>   <int>   <int>
 1 2022090~ 58838   Nathan~ Field ~      42 174       2022 REG         1       1
 2 2022090~ 58838   Matt E~ Back J~      96 178       2022 REG         1       1
 3 2022090~ 58838   Mike C~ Down J~      63 168       2022 REG         1       1
 4 2022090~ 58838   Eugene~ Side J~     103 108       2022 REG         1       1
 5 2022090~ 58838   Jeff S~ Line J~      45 23        2022 REG         1       1
 6 2022090~ 58838   Carl C~ Referee      51 3         2022 REG         1       1
 7 2022090~ 58838   Brando~ Umpire        0 201       2022 REG         1       1
 8 2022091~ 58839   Mike M~ Umpire        0 206       2022 REG         1       2
 9 2022091~ 58839   John J~ Field ~     117 86        2022 REG         1       2
10 2022091~ 58839   Danny ~ Down J~     113 172       2022 REG         1       2
# ... with 2,055 more rows, and abbreviated variable names 1: game_key,
#   2: official_name, 3: position, 4: jersey_number, 5: official_id,
#   6: season_type
…
4.4.6 The load_trades() Function

The load_trades() function returns a data frames that includes all trades in the NFL on a season-by-season basis with information pertaining to: trade_id, season, trade_date, gave, received, pick_season, pick_round, pick_number, conditional, pfr_id, pfr_name.

For example, we can gather every trade involving the New England Patriots with the following code:

ne_trades <- nflreadr::load_trades(seasons = 2000:2022) %>%
  filter(gave == "NE" | received == "NE")

ne_trades

# A tibble: 498 x 11
   trade_id season trade_date gave  received pick_season pick_~1 pick_~2 condi~3
      <dbl>  <dbl> <date>     <chr> <chr>          <dbl>   <dbl>   <dbl>   <dbl>
 1      704   2002 2002-03-11 GB    NE              2002       4     126       0
 2      704   2002 2002-03-11 NE    GB                NA      NA      NA      NA
 3      716   2002 2002-04-20 NE    WAS             2002       1      32       0
 4      716   2002 2002-04-20 NE    WAS             2002       3      96       0
 5      716   2002 2002-04-20 NE    WAS             2002       7     234       0
 6      716   2002 2002-04-20 WAS   NE              2002       1      21       0
 7      725   2002 2002-04-21 DEN   NE              2002       4     117       0
 8      725   2002 2002-04-21 NE    DEN             2002       4     131       0
 9      725   2002 2002-04-21 NE    DEN             2002       5     144       0
10      727   2002 2002-04-21 DAL   NE              2002       7     237       0
# ... with 488 more rows, 2 more variables: pfr_id <chr>, pfr_name <chr>, and
#   abbreviated variable names 1: pick_round, 2: pick_number, 3: conditional
…
Since the load_trades() function also includes NFL Draft round and pick numbers (if included in a trade), we can also - for example - determine all trades that involved a top ten pick switching hands.

top_ten_picks <- nflreadr::load_trades() %>%
  filter(pick_round == 1 & pick_number <= 10)

top_ten_picks

# A tibble: 51 x 11
   trade_id season trade_date gave  received pick_season pick_~1 pick_~2 condi~3
      <dbl>  <dbl> <date>     <chr> <chr>          <dbl>   <dbl>   <dbl>   <dbl>
 1      711   2002 2002-04-20 DAL   KC              2002       1       6       0
 2      711   2002 2002-04-20 KC    DAL             2002       1       8       0
 3      661   2003 2003-04-26 CHI   NYJ             2003       1       4       0
 4      662   2003 2003-04-26 ARI   NO              2003       1       6       0
 5       16   2004 2004-04-24 CLE   DET             2004       1       7       0
 6       16   2004 2004-04-24 DET   CLE             2004       1       6       0
 7       64   2005 2005-03-03 OAK   MIN             2005       1       7       0
 8      189   2007 2007-03-22 ATL   HOU             2007       1      10       0
 9      189   2007 2007-03-22 HOU   ATL             2007       1       8       0
10      197   2007 2007-04-28 SF    NE              2008       1       7       0
# ... with 41 more rows, 2 more variables: pfr_id <chr>, pfr_name <chr>, and
#   abbreviated variable names 1: pick_round, 2: pick_number, 3: conditional
…
