…
tibble(air.yards)
```

```
## # A tibble: 42 x 3
##    name       air.yards avg.ay
##    <chr>          <dbl>  <dbl>
##  1 T.Brady         5821   342.
##  2 J.Allen         5295   311.
##  3 M.Stafford      5094   300.
##  4 D.Carr          5084   299.
##  5 J.Herbert       5069   298.
##  6 P.Mahomes       4825   284.
##  7 T.Lawrence      4732   278.
##  8 D.Prescott      4612   288.
##  9 K.Cousins       4575   286.
## 10 J.Burrow        4225   264.
## # ... with 32 more rows
```
…
tibble(adot)
```

```
## # A tibble: 42 x 5
##    player_id  name       attempts air.yards  adot
##    <chr>      <chr>         <int>     <dbl> <dbl>
##  1 00-0035704 D.Lock          111      1117 10.1 
##  2 00-0029263 R.Wilson        400      3955  9.89
##  3 00-0036945 J.Fields        270      2636  9.76
##  4 00-0034796 L.Jackson       382      3531  9.24
##  5 00-0036389 J.Hurts         432      3882  8.99
##  6 00-0034855 B.Mayfield      418      3651  8.73
##  7 00-0026498 M.Stafford      601      5094  8.48
##  8 00-0031503 J.Winston       161      1340  8.32
##  9 00-0034857 J.Allen         646      5295  8.20
## 10 00-0029604 K.Cousins       561      4575  8.16
## # ... with 32 more rows
```
…
