Chapter 1 An Introduction to NFL Analytics and the R Programming Language | An Introduction to NFL Analytics with R
…
aggressiveness <- data %>%
  group_by(passer, passer_id, posteam) %>%
  filter(down == 3, play_type == "pass", ydstogo >= 5, ydstogo <= 10) %>%
  summarize(total = n(),
            aggressive = sum(air_yards >= ydstogo, na.rm = TRUE),
            percentage = aggressive / total) %>%
  filter(total >= 50) %>%
  arrange(desc(percentage))

## `summarise()` has grouped output by 'passer', 'passer_id'. You can override
## using the `.groups` argument.

tibble(aggressiveness)

## # A tibble: 30 x 6
##    passer       passer_id  posteam total aggressive percentage
##    <chr>        <chr>      <chr>   <int>      <int>      <dbl>
##  1 D.Prescott   00-0033077 DAL        84         53      0.631
##  2 K.Murray     00-0035228 ARI        60         37      0.617
##  3 J.Hurts      00-0036389 PHI        65         40      0.615
##  4 P.Mahomes    00-0033873 KC         93         56      0.602
##  5 B.Mayfield   00-0034855 CLE        59         35      0.593
##  6 T.Lawrence   00-0036971 JAX        78         46      0.590
##  7 J.Herbert    00-0036355 LAC        87         51      0.586
##  8 D.Jones      00-0035710 NYG        60         35      0.583
##  9 T.Tagovailoa 00-0036212 MIA        60         35      0.583
## 10 M.Stafford   00-0026498 LA         95         54      0.568
## # ... with 20 more rows
…
aggressiveness.under.10 <- data %>%
  group_by(passer, passer_id, posteam) %>%
  filter(down == 3, play_type == "pass", ydstogo <= 10) %>%
  summarize(total = n(),
            aggressive = sum(air_yards >= ydstogo, na.rm = TRUE),
            percentage = aggressive / total) %>%
  filter(total >= 50) %>%
  arrange(desc(percentage))

## `summarise()` has grouped output by 'passer', 'passer_id'. You can override
## using the `.groups` argument.

tibble(aggressiveness.under.10)

## # A tibble: 33 x 6
##    passer       passer_id  posteam total aggressive percentage
##    <chr>        <chr>      <chr>   <int>      <int>      <dbl>
##  1 K.Murray     00-0035228 ARI        98         67      0.684
##  2 J.Hurts      00-0036389 PHI       107         73      0.682
##  3 T.Lawrence   00-0036971 JAX       131         88      0.672
##  4 D.Prescott   00-0033077 DAL       136         89      0.654
##  5 J.Allen      00-0034857 BUF       138         88      0.638
##  6 J.Herbert    00-0036355 LAC       148         94      0.635
##  7 T.Tagovailoa 00-0036212 MIA        93         59      0.634
##  8 M.Stafford   00-0026498 LA        172        109      0.634
##  9 A.Rodgers    00-0023459 GB        128         80      0.625
## 10 D.Jones      00-0035710 NYG        85         53      0.624
## # ... with 23 more rows
…
## `summarise()` has grouped output by 'passer', 'passer_id'. You can override
## using the `.groups` argument.

tibble(aggressiveness.garbage)

## # A tibble: 26 x 6
##    passer     passer_id  posteam total aggressive percentage
##    <chr>      <chr>      <chr>   <int>      <int>      <dbl>
##  1 D.Prescott 00-0033077 DAL        61         40      0.656
##  2 T.Lawrence 00-0036971 JAX        51         33      0.647
##  3 K.Murray   00-0035228 ARI        51         31      0.608
##  4 M.Stafford 00-0026498 LA         79         48      0.608
##  5 P.Mahomes  00-0033873 KC         68         41      0.603
##  6 D.Jones    00-0035710 NYG        50         30      0.6  
##  7 J.Herbert  00-0036355 LAC        67         38      0.567
##  8 M.Jones    00-0036972 NE         57         31      0.544
##  9 J.Allen    00-0034857 BUF        59         32      0.542
## 10 R.Wilson   00-0029263 SEA        56         30      0.536
## # ... with 16 more rows
…
