Chapter 1 An Introduction to NFL Analytics and the R Programming Language (*rough draft) | An Introduction to NFL Analytics with R
…
In the above example, we are using group_by to combine the desired statistics based on each unique player_id to, again, avoid any issues with player names within the data. After filtering to include just those statistics for the regular season, we first use the summarize function grab the first player_name associated with the player_id. After, we find two items: (1.) the total number of passing attempts by each QB which is outputted into a new row titled n.attempts and the regular season total of each QB’s air yards, again outputted into a new row titled n.airyards.

It is important to note that the final row created with the summarize function is not a statistic included within load_player_stats(). In order to find a QB’s average air yards per attempt, we must use the first two items we’ve created and do some simple division (the created n.airyards divided by n.attempts).

Finally, to “clear the noise” of those QBs with minimal attempts through the season, we included a filter to include those passers with at least 400 attempts. After, we arrange the new DF by sorting the QBs in descending order by average air yards per attempt.

The end results look like this:

tibble(ay.per.attempt)

## # A tibble: 25 x 2
##    player_name   ay.attempt
##    <chr>              <dbl>
##  1 R.Wilson            9.89
##  2 J.Hurts             8.99
##  3 B.Mayfield          8.73
##  4 M.Stafford          8.48
##  5 J.Allen             8.20
##  6 K.Cousins           8.16
##  7 J.Burrow            8.12
##  8 D.Carr              8.12
##  9 T.Brady             8.10
## 10 T.Bridgewater       8.04
## # ... with 15 more rows
…
aggressiveness <- data %>%
  group_by(passer_id) %>%
  filter(down == 3, play_type == "pass", ydstogo >= 5, ydstogo <= 10) %>%
  summarize(player_name = first(passer),
            team = first(posteam),
            total = n(),
            aggressive = sum(air_yards >= ydstogo, na.rm = TRUE),
            percentage = aggressive / total) %>%
  filter(total >= 50) %>%
  arrange(desc(percentage))

tibble(aggressiveness)

## # A tibble: 30 x 6
##    passer_id  player_name  team  total aggressive percentage
##    <chr>      <chr>        <chr> <int>      <int>      <dbl>
##  1 00-0033077 D.Prescott   DAL      84         53      0.631
##  2 00-0035228 K.Murray     ARI      60         37      0.617
##  3 00-0036389 J.Hurts      PHI      65         40      0.615
##  4 00-0033873 P.Mahomes    KC       93         56      0.602
##  5 00-0034855 B.Mayfield   CLE      59         35      0.593
##  6 00-0036971 T.Lawrence   JAX      78         46      0.590
##  7 00-0036355 J.Herbert    LAC      87         51      0.586
##  8 00-0035710 D.Jones      NYG      60         35      0.583
##  9 00-0036212 T.Tagovailoa MIA      60         35      0.583
## 10 00-0026498 M.Stafford   LA       95         54      0.568
## # ... with 20 more rows
…
aggressiveness.under.10 <- data %>%
  group_by(passer_id) %>%
  filter(down == 3, play_type == "pass", ydstogo <= 10) %>%
  summarize(player_name = first(passer),
            team = first(posteam),
            total = n(),
            aggressive = sum(air_yards >= ydstogo, na.rm = TRUE),
            percentage = aggressive / total) %>%
  filter(total >= 50) %>%
  arrange(desc(percentage))

tibble(aggressiveness.under.10)

## # A tibble: 33 x 6
##    passer_id  player_name  team  total aggressive percentage
##    <chr>      <chr>        <chr> <int>      <int>      <dbl>
##  1 00-0035228 K.Murray     ARI      98         67      0.684
##  2 00-0036389 J.Hurts      PHI     107         73      0.682
##  3 00-0036971 T.Lawrence   JAX     131         88      0.672
##  4 00-0033077 D.Prescott   DAL     136         89      0.654
##  5 00-0034857 J.Allen      BUF     138         88      0.638
##  6 00-0036355 J.Herbert    LAC     148         94      0.635
##  7 00-0036212 T.Tagovailoa MIA      93         59      0.634
##  8 00-0026498 M.Stafford   LA      172        109      0.634
##  9 00-0023459 A.Rodgers    GB      128         80      0.625
## 10 00-0035710 D.Jones      NYG      85         53      0.624
## # ... with 23 more rows
…
aggressiveness.garbage <- data %>%
  group_by(passer_id) %>%
  filter(down == 3, play_type == "pass", ydstogo >= 5, ydstogo <= 10,
         wp > .05, wp < .95, half_seconds_remaining > 120) %>%
  summarize(player_name = first(passer),
            team = first(posteam),
            total = n(),
            aggressive = sum(air_yards >= ydstogo, na.rm = TRUE),
            percentage = aggressive / total) %>%
  filter(total >= 50) %>%
  arrange(desc(percentage))

tibble(aggressiveness.garbage)

## # A tibble: 26 x 6
##    passer_id  player_name team  total aggressive percentage
##    <chr>      <chr>       <chr> <int>      <int>      <dbl>
##  1 00-0033077 D.Prescott  DAL      61         40      0.656
##  2 00-0036971 T.Lawrence  JAX      51         33      0.647
##  3 00-0035228 K.Murray    ARI      51         31      0.608
##  4 00-0026498 M.Stafford  LA       79         48      0.608
##  5 00-0033873 P.Mahomes   KC       68         41      0.603
##  6 00-0035710 D.Jones     NYG      50         30      0.6  
##  7 00-0036355 J.Herbert   LAC      67         38      0.567
##  8 00-0036972 M.Jones     NE       57         31      0.544
##  9 00-0034857 J.Allen     BUF      59         32      0.542
## 10 00-0029263 R.Wilson    SEA      56         30      0.536
## # ... with 16 more rows
…
1.3 Retrieving & Working With Data for Multiple Seasons

In the case of both load_pbp() and load_player_stats(), it is possible to load data over multiple seasons.

In our above example calculating average air yard per attempt, it is important to note that Russell Wilson’s league-eading average of 9.89 air yards per attempt is calculated using all passing attempts, meaning pass attempts that were both complete and incomplete.

In our first example of working with data across multiple seasons, let’s examine average air yards for only completed passes. To begin, we will retrieve the play-by-play data for the last five seasons:

ay.five.years <- nflreadr::load_pbp(2017:2021)

To retrieve multiple seasons of data, a colon : is placed between the years that you want. When you run the code, nflreadr will output the data to include the play-by-play data starting with the oldest season (in this case, the 2017 NFL season):

tibble(ay.five.years)

## # A tibble: 243,131 x 372
##    play_id game_id     old_game_id home_team away_team season_type  week posteam
##      <dbl> <chr>       <chr>       <chr>     <chr>     <chr>       <int> <chr>  
##  1       1 2017_01_AR~ 2017091004  DET       ARI       REG             1 <NA>   
##  2      37 2017_01_AR~ 2017091004  DET       ARI       REG             1 ARI    
##  3      73 2017_01_AR~ 2017091004  DET       ARI       REG             1 ARI    
##  4      97 2017_01_AR~ 2017091004  DET       ARI       REG             1 ARI    
##  5     118 2017_01_AR~ 2017091004  DET       ARI       REG             1 ARI    
##  6     153 2017_01_AR~ 2017091004  DET       ARI       REG             1 ARI    
##  7     174 2017_01_AR~ 2017091004  DET       ARI       REG             1 ARI    
##  8     207 2017_01_AR~ 2017091004  DET       ARI       REG             1 ARI    
##  9     233 2017_01_AR~ 2017091004  DET       ARI       REG             1 DET    
## 10     254 2017_01_AR~ 2017091004  DET       ARI       REG             1 DET    
## # ... with 243,121 more rows, and 364 more variables: posteam_type <chr>,
## #   defteam <chr>, side_of_field <chr>, yardline_100 <dbl>, game_date <chr>,
## #   quarter_seconds_remaining <dbl>, half_seconds_remaining <dbl>,
## #   game_seconds_remaining <dbl>, game_half <chr>, quarter_end <dbl>,
## #   drive <dbl>, sp <dbl>, qtr <dbl>, down <dbl>, goal_to_go <dbl>, time <chr>,
## #   yrdln <chr>, ydstogo <dbl>, ydsnet <dbl>, desc <chr>, play_type <chr>,
## #   yards_gained <dbl>, shotgun <dbl>, no_huddle <dbl>, qb_dropback <dbl>, ...
…
